Division,WeightClassKg,Place,Name,Team,BodyweightKg,Best3SquatKg,Best3BenchKg,Best3DeadliftKg,TotalKg,Equipment,Event,Sex,BirthDate
Boys,51.71,1,Robert Noriega,Kress,51.17,129.27,86.18,156.49,371.95,Single-ply,SBD,M,
Boys,51.71,2,Edgar Ramos,Perryton,51.71,113.4,72.57,129.27,315.25,Single-ply,SBD,M,
Boys,51.71,3,Xavier Ellis,Kress,45.36,104.33,63.5,127.01,294.84,Single-ply,SBD,M,
Boys,51.71,4,Davian Castilleja,Kress,51.62,88.45,58.97,122.47,269.89,Single-ply,SBD,M,
Boys,55.79,1,Caden Rocha,Panhandle,55.61,167.83,104.33,158.76,430.91,Single-ply,SBD,M,
Boys,55.79,2,Michael Bautista,Friona,55.25,147.42,88.45,151.95,387.82,Single-ply,SBD,M,
Boys,55.79,3,Fabian Viernes,Bovina,54.98,138.35,92.99,142.88,374.21,Single-ply,SBD,M,
Boys,55.79,4,Sergio Magallanes,Muleshoe,55.7,142.88,61.23,136.08,340.19,Single-ply,SBD,M,
Boys,55.79,5,Ceasar Amaya,Bovina,54.25,129.27,72.57,129.27,331.12,Single-ply,SBD,M,
Boys,55.79,6,Gabriel Ramos,Friona,55.79,111.13,68.04,115.67,294.84,Single-ply,SBD,M,
Boys,55.79,7,Eric Estrada,Friona,55.66,104.33,47.63,122.47,274.42,Single-ply,SBD,M,
Boys,55.79,DQ,Adam Alacron,Muleshoe,54.98,131.54,,,,Single-ply,SBD,M,
Boys,59.87,1,Javier Martinez,Perryton,59.51,165.56,74.84,190.51,430.91,Single-ply,SBD,M,
Boys,59.87,2,Mario Bautista,Friona,59.65,163.29,97.52,170.1,430.91,Single-ply,SBD,M,
Boys,59.87,3,Jeremey Rodriguez,Tulia,57.06,165.56,83.91,174.63,424.11,Single-ply,SBD,M,
Boys,59.87,4,Bryan Tarango,Dimmitt,58.88,136.08,77.11,165.56,378.75,Single-ply,SBD,M,
Boys,59.87,5,Jovany Salazar,Bovina,58.51,136.08,79.38,156.49,371.95,Single-ply,SBD,M,
Boys,59.87,6,Jorge Garcia #4,Friona,57.06,142.88,81.65,122.47,347,Single-ply,SBD,M,
Boys,59.87,7,Lizandro Rocha,Dimmitt,59.51,117.93,72.57,142.88,333.39,Single-ply,SBD,M,
Boys,59.87,8,Xayvion Gonzalez,Dimmitt,58.69,124.74,77.11,129.27,331.12,Single-ply,SBD,M,
Boys,59.87,9,Miguel Lopez #8,Bovina,59.6,117.93,81.65,131.54,331.12,Single-ply,SBD,M,
Boys,59.87,10,Diego Cedillo,Kress,59.24,115.67,72.57,122.47,310.71,Single-ply,SBD,M,
Boys,59.87,DQ,Gage Graves,Lockney,59.78,115.67,68.04,,,Single-ply,SBD,M,
Boys,67.13,1,Vincent Yarbrough,Tulia,63.68,176.9,106.59,208.65,492.15,Single-ply,SBD,M,
Boys,67.13,2,Rodolfo Delgado,Perryton,66.59,179.17,117.93,185.97,483.08,Single-ply,SBD,M,
Boys,67.13,3,Uriel Vasquez,Muleshoe,66.13,188.24,106.59,176.9,471.74,Single-ply,SBD,M,
Boys,67.13,4,Gabriel Reyes,Dimmitt,63.5,158.76,108.86,201.85,469.47,Single-ply,SBD,M,
Boys,67.13,5,Xuan Garcia,Friona,66.86,154.22,92.99,181.44,428.64,Single-ply,SBD,M,
Boys,67.13,6,Lorenzo Hinojosa,Muleshoe,66.59,161.03,95.25,142.88,399.16,Single-ply,SBD,M,
Boys,67.13,7,Skyler Monroe,Tulia,66.77,140.61,86.18,167.83,394.63,Single-ply,SBD,M,
Boys,67.13,8,Justin Dycki,Muleshoe,62.6,147.42,97.52,147.42,392.36,Single-ply,SBD,M,
Boys,67.13,9,Felix Gonzales,Lockney,60.78,147.42,83.91,156.49,387.82,Single-ply,SBD,M,
Boys,67.13,10,Jorge Bo Hernandez,Dimmitt,63.41,138.35,88.45,161.03,387.82,Single-ply,SBD,M,
Boys,67.13,11,Sedric Mirelez,Dimmitt,66.5,133.81,79.38,170.1,383.29,Single-ply,SBD,M,
Boys,67.13,12,Morris Salas,Lockney,65.41,127.01,79.38,170.1,376.48,Single-ply,SBD,M,
Boys,67.13,13,Ivan Garcia #5,Tulia,66.04,124.74,86.18,163.29,374.21,Single-ply,SBD,M,
Boys,67.13,14,Christian Zapata,Kress,63.78,136.08,70.31,161.03,367.41,Single-ply,SBD,M,
Boys,67.13,15,Jasiah Castellon,Tulia,60.96,113.4,81.65,140.61,335.66,Single-ply,SBD,M,
Boys,67.13,16,Devion Ellis,Kress,63.32,124.74,63.5,147.42,335.66,Single-ply,SBD,M,
Boys,67.13,17,Jeremiah Rosales,Lockney,60.96,133.81,68.04,127.01,328.85,Single-ply,SBD,M,
Boys,67.13,18,Davonte Baker,Kress,66.32,120.2,65.77,136.08,322.05,Single-ply,SBD,M,
Boys,67.13,DQ,Yahir Quezada,Muleshoe,67.04,151.95,79.38,,,Single-ply,SBD,M,
Boys,74.84,1,Jose Ticum,Friona,74.71,231.33,136.08,213.19,580.6,Single-ply,SBD,M,
Boys,74.84,2,Dylan Davis,Panhandle,72.67,226.8,122.47,190.51,539.77,Single-ply,SBD,M,
Boys,74.84,3,Sabian Martinez,Dimmitt,72.94,185.97,113.4,179.17,478.54,Single-ply,SBD,M,
Boys,74.84,4,Michael Guzman,Kress,73.21,161.03,108.86,188.24,458.13,Single-ply,SBD,M,
Boys,74.84,5,Tony Rodriguez #4,Friona,74.71,172.37,104.33,179.17,455.86,Single-ply,SBD,M,
Boys,74.84,6,Noah Cantu,Muleshoe,68.58,172.37,88.45,183.7,444.52,Single-ply,SBD,M,
Boys,74.84,7,Whitman Martin,Panhandle,72.03,170.1,97.52,165.56,433.18,Single-ply,SBD,M,
Boys,74.84,8,Isaac Olmos,Friona,71.12,147.42,88.45,158.76,394.63,Single-ply,SBD,M,
Boys,74.84,9,William VanZee,Dimmitt,73.84,142.88,88.45,158.76,390.09,Single-ply,SBD,M,
Boys,74.84,10,Royce Rey,Tulia,71.12,113.4,83.91,174.63,371.95,Single-ply,SBD,M,
Boys,74.84,DQ,Tye Bice,Tulia,68.04,,,,,Single-ply,SBD,M,
Boys,74.84,DQ,Luis Rivera #4,Perryton,73.57,190.51,92.99,,,Single-ply,SBD,M,
Boys,74.84,DQ,Aaron Salinas,Friona,74.07,172.37,81.65,,,Single-ply,SBD,M,
Boys,82.1,1,Nathan Ceniceros,Lockney,77.93,163.29,115.67,217.72,496.68,Single-ply,SBD,M,
Boys,82.1,2,Mike Theis,Panhandle,79.2,188.24,122.47,179.17,489.88,Single-ply,SBD,M,
Boys,82.1,3,Kevin Lucatero,Friona,81.69,183.7,111.13,192.78,487.61,Single-ply,SBD,M,
Boys,82.1,4,Caleb McDowell,Tulia,81.47,183.7,90.72,204.12,478.54,Single-ply,SBD,M,
Boys,82.1,5,Jordan Casas,Dimmitt,77.02,167.83,88.45,176.9,433.18,Single-ply,SBD,M,
Boys,82.1,6,Abram Rocha,Friona,78.83,161.03,95.25,158.76,415.04,Single-ply,SBD,M,
Boys,82.1,DQ,Dalton L'Esperance,Perryton,81.56,210.92,120.2,206.38,,Single-ply,SBD,M,
Boys,89.81,1,Izaiah Vasquez,Perryton,84.37,226.8,133.81,195.04,555.65,Single-ply,SBD,M,
Boys,89.81,2,Darian DeLaRosa,Bovina,87.09,201.85,97.52,204.12,503.49,Single-ply,SBD,M,
Boys,89.81,3,Jose Castillo #12,Kress,88.9,197.31,120.2,181.44,498.95,Single-ply,SBD,M,
Boys,89.81,4,Preston Painter,Perryton,88.72,183.7,127.01,170.1,480.81,Single-ply,SBD,M,
Boys,89.81,5,McCade Smith,Panhandle,86.64,183.7,90.72,204.12,478.54,Single-ply,SBD,M,
Boys,89.81,6,Abraham Loeza,Dimmitt,86.09,165.56,127.01,179.17,471.74,Single-ply,SBD,M,
Boys,89.81,7,Christian Annett,Bovina,89.45,172.37,102.06,181.44,455.86,Single-ply,SBD,M,
Boys,89.81,8,Hevilat Perez,Friona,83.28,174.63,104.33,163.29,442.25,Single-ply,SBD,M,
Boys,89.81,9,Jose Ramirez #20,Perryton,84.73,147.42,90.72,183.7,421.84,Single-ply,SBD,M,
Boys,89.81,10,Yandel DeLeon,Bovina,88.99,161.03,68.04,172.37,401.43,Single-ply,SBD,M,
Boys,89.81,11,Sergio Ramos,Dimmitt,89.45,136.08,95.25,158.76,390.09,Single-ply,SBD,M,
Boys,89.81,12,Eszequiel Vidal,Dimmitt,82.92,138.35,95.25,154.22,387.82,Single-ply,SBD,M,
Boys,89.81,13,Gabe Abarca,Friona,89.72,156.49,88.45,136.08,381.02,Single-ply,SBD,M,
Boys,89.81,14,James Walker #8,Kress,87.27,142.88,77.11,138.35,358.34,Single-ply,SBD,M,
Boys,89.81,15,Angel Saucedo,Friona,84.1,145.15,68.04,142.88,356.07,Single-ply,SBD,M,
Boys,99.79,1,Joe Barrera,Tulia,98.43,272.16,183.7,260.82,716.68,Single-ply,SBD,M,
Boys,99.79,2,Gerardo Gonzalez,Dimmitt,95.71,226.8,124.74,272.16,623.69,Single-ply,SBD,M,
Boys,99.79,3,Eli Alvarez,Lockney,99.7,224.53,138.35,195.04,557.92,Single-ply,SBD,M,
Boys,99.79,4,Zeke Hinojose,Muleshoe,93.08,204.12,104.33,192.78,501.22,Single-ply,SBD,M,
Boys,99.79,5,Matthew Lopez #4,Dimmitt,98.61,183.7,122.47,183.7,489.88,Single-ply,SBD,M,
Boys,99.79,6,Hayden Forbes,Panhandle,98.7,188.24,104.33,190.51,483.08,Single-ply,SBD,M,
Boys,99.79,7,Dustin Medina,Panhandle,92.53,188.24,92.99,183.7,464.93,Single-ply,SBD,M,
Boys,99.79,8,Raymond Cortez,Muleshoe,94.98,195.04,90.72,172.37,458.13,Single-ply,SBD,M,
Boys,99.79,9,Tad Burleson,Dimmitt,94.08,151.95,99.79,167.83,419.57,Single-ply,SBD,M,
Boys,99.79,10,Mariano Garcia,Muleshoe,98.25,124.74,61.23,122.47,308.44,Single-ply,SBD,M,
Boys,99.79,DQ,Caleb Pritchard,Lockney,99.61,192.78,127.01,,,Single-ply,SBD,M,
Boys,109.77,1,Bryan Chacon,Perryton,101.79,251.74,122.47,240.4,614.62,Single-ply,SBD,M,
Boys,109.77,2,Jj Mandujano,Perryton,105.32,210.92,124.74,263.08,598.74,Single-ply,SBD,M,
Boys,109.77,3,Aaron Rodriguez,Friona,109.41,240.4,136.08,195.04,571.53,Single-ply,SBD,M,
Boys,109.77,4,Martin Hernandez #7,Dimmitt,108.59,206.38,113.4,240.4,560.19,Single-ply,SBD,M,
Boys,109.77,5,Ishmael Flores,Friona,103.78,229.06,124.74,197.31,551.11,Single-ply,SBD,M,
Boys,109.77,6,Jesus Lopez,Dimmitt,103.51,195.04,104.33,195.04,494.42,Single-ply,SBD,M,
Boys,109.77,7,Matthew Dimas,Friona,103.83,183.7,120.2,185.97,489.88,Single-ply,SBD,M,
Boys,109.77,8,Rudy Jimenez,Lockney,108.5,170.1,120.2,172.37,462.66,Single-ply,SBD,M,
Boys,124.74,1,Jake Padilla,Friona,120.29,263.08,167.83,244.94,675.85,Single-ply,SBD,M,
Boys,124.74,2,Anthony Abarca,Friona,114.4,226.8,104.33,215.46,546.58,Single-ply,SBD,M,
Boys,124.74,3,Elijah Robledo,Friona,115.48,231.33,120.2,179.17,530.7,Single-ply,SBD,M,
Boys,124.74,DQ,Jacinto Briones,Tulia,115.48,206.38,,,,Single-ply,SBD,M,
Boys,139.71,1,Eric Jaramillo,Friona,129.73,249.48,158.76,217.72,625.96,Single-ply,SBD,M,
Boys,139.71,2,Caden Pritchard,Lockney,136.8,204.12,127.01,176.9,508.02,Single-ply,SBD,M,
Boys,139.71,DQ,Xathen Chasco,Tulia,125.01,,,,,Single-ply,SBD,M,
Boys,139.71+,1,Alfonso Chapa,Kress,156.4,183.7,90.72,142.88,417.3,Single-ply,SBD,M,
Boys,,NS,Jaden Norega,Kress,,,,,,Single-ply,SBD,M,
Boys,,NS,Ja'Quaveien Ellis,Kress,,,,,,Single-ply,SBD,M,
Boys,,NS,Jake Dixon,Kress,,,,,,Single-ply,SBD,M,
Boys,,NS,Damion Gonzales,Lockney,,,,,,Single-ply,SBD,M,
Boys,,NS,Ryan Clifton,Muleshoe,,,,,,Single-ply,SBD,M,
Boys,,NS,Angel Catalan,Dimmitt,,,,,,Single-ply,SBD,M,
Boys,,NS,Wyatt Stamps,Panhandle,,,,,,Single-ply,SBD,M,
Boys,,NS,Jasiah Tavarez,Dimmitt,,,,,,Single-ply,SBD,M,
